<svg width="128" height="43" viewBox="0 0 128 43" fill="none" xmlns="http://www.w3.org/2000/svg">
<path d="M86 0H43V43H86V0Z" fill="#00BFFF"/>
<path d="M85.5 0.5H43.5V42.5H85.5V0.5Z" stroke="#707070"/>
<path d="M42.5 0.5H0.5V42.5H42.5V0.5Z" stroke="#707070"/>
<path d="M127.5 0.5H85.5V42.5H127.5V0.5Z" stroke="#707070"/>
<path d="M116.573 22.693L102.908 36.358C102.751 36.5147 102.565 36.639 102.361 36.7238C102.156 36.8086 101.936 36.8522 101.715 36.8522C101.493 36.8522 101.274 36.8086 101.069 36.7238C100.865 36.639 100.679 36.5147 100.522 36.358L98.9269 34.764C98.611 34.4477 98.4336 34.019 98.4336 33.572C98.4336 33.125 98.611 32.6963 98.9269 32.38L109.754 21.5L98.9249 10.619C98.609 10.3027 98.4316 9.87397 98.4316 9.42699C98.4316 8.98 98.609 8.55129 98.9249 8.23499L100.521 6.64199C100.678 6.4853 100.864 6.36101 101.068 6.27621C101.273 6.19141 101.492 6.14777 101.714 6.14777C101.935 6.14777 102.155 6.19141 102.36 6.27621C102.564 6.36101 102.75 6.4853 102.907 6.64199L116.572 20.307C116.888 20.6234 117.066 21.0524 117.066 21.4998C117.066 21.9472 116.889 22.3763 116.573 22.693V22.693Z" fill="#AEADAD"/>
<path opacity="0.8" d="M11.9271 22.693L25.5921 36.358C25.7488 36.5148 25.9349 36.6393 26.1397 36.7241C26.3444 36.809 26.564 36.8527 26.7856 36.8527C27.0073 36.8527 27.2268 36.809 27.4316 36.7241C27.6364 36.6393 27.8225 36.5148 27.9791 36.358L29.5731 34.764C29.889 34.4477 30.0664 34.019 30.0664 33.572C30.0664 33.125 29.889 32.6963 29.5731 32.38L18.7461 21.5L29.5751 10.619C29.891 10.3027 30.0684 9.87398 30.0684 9.427C30.0684 8.98002 29.891 8.5513 29.5751 8.235L27.9811 6.641C27.8245 6.48416 27.6384 6.35975 27.4336 6.27486C27.2288 6.18997 27.0093 6.14628 26.7876 6.14628C26.566 6.14628 26.3464 6.18997 26.1417 6.27486C25.9369 6.35975 25.7508 6.48416 25.5941 6.641L11.9271 20.307C11.7705 20.4637 11.6462 20.6496 11.5614 20.8543C11.4766 21.059 11.4329 21.2784 11.4329 21.5C11.4329 21.7216 11.4766 21.941 11.5614 22.1457C11.6462 22.3504 11.7705 22.5363 11.9271 22.693V22.693Z" fill="#AEADAD"/>
<path d="M66.9141 31H63.293V21.0859L63.3281 19.457L63.3867 17.6758C62.7852 18.2773 62.3672 18.6719 62.1328 18.8594L60.1641 20.4414L58.418 18.2617L63.9375 13.8672H66.9141V31Z" fill="#F9F7F7"/>
</svg>
