<svg width="69" height="69" viewBox="0 0 69 69" fill="white" xmlns="http://www.w3.org/2000/svg">
<path d="M34.5 68.5C53.2777 68.5 68.5 53.2777 68.5 34.5C68.5 15.7223 53.2777 0.5 34.5 0.5C15.7223 0.5 0.5 15.7223 0.5 34.5C0.5 53.2777 15.7223 68.5 34.5 68.5Z" stroke="#707070"/>
<path d="M26.7729 21H47.7729C48.5686 21 49.3317 21.3161 49.8943 21.8787C50.4569 22.4413 50.7729 23.2044 50.7729 24V45C50.7729 45.7956 50.4569 46.5587 49.8943 47.1213C49.3317 47.6839 48.5686 48 47.7729 48H26.7729C25.9773 48 25.2142 47.6839 24.6516 47.1213C24.089 46.5587 23.7729 45.7956 23.7729 45V24C23.7729 23.2044 24.089 22.4413 24.6516 21.8787C25.2142 21.3161 25.9773 21 26.7729 21V21Z" stroke="black" stroke-width="3" stroke-linecap="round" stroke-linejoin="round"/>
<path d="M34.273 29.25C34.273 29.695 34.141 30.13 33.8938 30.5C33.6465 30.87 33.2951 31.1584 32.884 31.3287C32.4729 31.499 32.0205 31.5436 31.584 31.4568C31.1475 31.37 30.7466 31.1557 30.432 30.841C30.1173 30.5263 29.903 30.1254 29.8162 29.689C29.7294 29.2525 29.7739 28.8001 29.9442 28.389C30.1145 27.9778 30.4029 27.6264 30.7729 27.3792C31.1429 27.132 31.5779 27 32.023 27C32.6197 27 33.192 27.2371 33.6139 27.659C34.0359 28.081 34.273 28.6533 34.273 29.25V29.25Z" stroke="black" stroke-width="3" stroke-linecap="round" stroke-linejoin="round"/>
<path d="M50.7729 39L43.2729 31.5L26.7729 48" stroke="black" stroke-width="3" stroke-linecap="round" stroke-linejoin="round"/>
</svg>
